<?xml version="1.0" encoding="iso-8859-1"?>
<svg version="1.0" xmlns="http://www.w3.org/2000/svg" width="96pt" height="96pt" viewBox="0 0 6 6">
<g>
<path fill="gray" d="M0 0 L6 0 L6 6 L 0 6" />
<path fill="white" d="M0 0 L6 0 L6 6 L5 5 L5 1 L1 1" />
<path fill="silver" d="M1 1 L5 1 L5 5 L 1 5" />
</g>
</svg>
